Linear Regression
…
## [1] 0.02259604

mae(ba_fit,ba_2014_2015)

## [1] 0.01820024

modelrcan also be used to add predictions and residuals to our original dataset:

ba_2014_2015 <- ba_2014_2015 %>% 
   add_predictions(ba_fit) %>%
   add_residuals(ba_fit)
ba_2014_2015

## # A tibble: 73 x 5
##    playerID  ba_2014 ba_2015  pred    resid
##    <chr>       <dbl>   <dbl> <dbl>    <dbl>
##  1 abreujo02   0.317   0.290 0.294 -0.00404
##  2 altuvjo01   0.341   0.313 0.306  0.00760
##  3 andruel01   0.263   0.258 0.269 -0.0110 
##  4 aybarer01   0.278   0.270 0.276 -0.00681
##  5 bautijo02   0.286   0.250 0.280 -0.0295 
##  6 beltrad01   0.324   0.287 0.298 -0.0106 
##  7 blackch02   0.288   0.287 0.281  0.00549
##  8 bogaexa01   0.240   0.320 0.258  0.0614 
##  9 brantmi02   0.327   0.310 0.299  0.0105 
## 10 braunry02   0.266   0.285 0.271  0.0139 
## # ... with 63 more rows
…
In the above code, we drew our fitted line using our coefficients from ba_fit and geom_abline to specifiy the slope and the intercept. An different way to plot our fitted line is to use the function data_grid. This function creates a grid of evenly spaced points over the range of our x data.

ba_grid <- ba_2014_2015 %>%
data_grid(ba_2014)
ba_grid

## # A tibble: 73 x 1
##    ba_2014
##      <dbl>
##  1   0.196
##  2   0.212
##  3   0.217
##  4   0.223
##  5   0.227
##  6   0.231
##  7   0.232
##  8   0.240
##  9   0.24 
## 10   0.242
## # ... with 63 more rows
…
