Lesson 2
…
nba_history

## # A tibble: 7,447 x 11
##    PLAYER     SEASON   FGM   FGA   TPM   TPA   FTM   FTA   FGP   TPP   FTP
##    <chr>       <int> <int> <int> <int> <int> <int> <int> <dbl> <dbl> <dbl>
##  1 Michael J~   1997   920  1892   111   297   480   576 0.486 0.374 0.833
##  2 Karl Malo~   1997   864  1571     0    13   521   690 0.550 0     0.755
##  3 Glen Rice    1997   722  1513   207   440   464   535 0.477 0.470 0.867
##  4 Shaquille~   1997   552   991     0     4   232   479 0.557 0     0.484
##  5 Mitch Ric~   1997   717  1578   204   477   457   531 0.454 0.428 0.861
##  6 Latrell S~   1997   649  1444   147   415   493   585 0.449 0.354 0.843
##  7 Allen Ive~   1997   625  1504   155   455   382   544 0.416 0.341 0.702
##  8 Hakeem Ol~   1997   727  1426     5    16   351   446 0.510 0.312 0.787
##  9 Patrick E~   1997   655  1342     2     9   439   582 0.488 0.222 0.754
## 10 LaPhonso ~   1997   445  1014    95   259   218   282 0.439 0.367 0.773
## # ... with 7,437 more rows
…
